데이터마이닝의 이론과 실제 6주차
…
mpg

## # A tibble: 234 x 11
##    manufacturer model      displ  year   cyl trans drv     cty   hwy fl    class
##    <chr>        <chr>      <dbl> <int> <int> <chr> <chr> <int> <int> <chr> <chr>
##  1 audi         a4           1.8  1999     4 auto~ f        18    29 p     comp~
##  2 audi         a4           1.8  1999     4 manu~ f        21    29 p     comp~
##  3 audi         a4           2    2008     4 manu~ f        20    31 p     comp~
##  4 audi         a4           2    2008     4 auto~ f        21    30 p     comp~
##  5 audi         a4           2.8  1999     6 auto~ f        16    26 p     comp~
##  6 audi         a4           2.8  1999     6 manu~ f        18    26 p     comp~
##  7 audi         a4           3.1  2008     6 auto~ f        18    27 p     comp~
##  8 audi         a4 quattro   1.8  1999     4 manu~ 4        18    26 p     comp~
##  9 audi         a4 quattro   1.8  1999     4 auto~ 4        16    25 p     comp~
## 10 audi         a4 quattro   2    2008     4 manu~ 4        20    28 p     comp~
## # ... with 224 more rows
…
glimpse(ost_tb)

## Rows: 100
## Columns: 1
## $ weight <dbl> 319.3148, 241.9693, 290.9807, 276.0801, 347.5499, 298.8435, 292~

ost_tb

## # A tibble: 100 x 1
##    weight
##     <dbl>
##  1   319.
##  2   242.
##  3   291.
##  4   276.
##  5   348.
##  6   299.
##  7   293.
##  8   304.
##  9   296.
## 10   286.
## # ... with 90 more rows
…
귀무가설의 분포를 만들어주라

null_dist_x <- ost_tb %>%
  specify(response = weight) %>%
  hypothesise(null = "point",
              mu = 320) %>% # 귀무가설의 값:320
  generate(reps = 1000,
           type = "bootstrap") %>%
  calculate(stat = "mean") %>%
  print()

## Response: weight (numeric)
## Null Hypothesis: point
## # A tibble: 1,000 x 2
##    replicate  stat
##        <int> <dbl>
##  1         1  322.
##  2         2  321.
##  3         3  323.
##  4         4  320.
##  5         5  317.
##  6         6  319.
##  7         7  324.
##  8         8  320.
##  9         9  322.
## 10        10  319.
## # ... with 990 more rows
…
null_dist_t <- ost_tb %>%
  specify(response = weight) %>%
  hypothesise(null = "point",
              mu = 320) %>% # 귀무가설의 값:320
  generate(reps = 1000,
           type = "bootstrap") %>%
  calculate(stat = "t") %>%
  print()

## Response: weight (numeric)
## Null Hypothesis: point
## # A tibble: 1,000 x 2
##    replicate   stat
##        <int>  <dbl>
##  1         1  0.120
##  2         2 -0.170
##  3         3  0.409
##  4         4  0.623
##  5         5  1.13 
##  6         6 -1.67 
##  7         7  0.796
##  8         8  0.354
##  9         9 -0.300
## 10        10  0.921
## # ... with 990 more rows
…
