데이터마이닝의 이론과 실제 7주차
…
## Warning: 패키지 'skimr'는 R 버전 4.1.3에서 작성되었습니다

## Rows: 60 Columns: 2
## -- Column specification --------------------------------------------------------
## Delimiter: ","
## dbl (2): 자동차회사, 타이어수명
## 
## i Use `spec()` to retrieve the full column specification for this data.
## i Specify the column types or set `show_col_types = FALSE` to quiet this message.

## tibble [60 x 2] (S3: tbl_df/tbl/data.frame)
##  $ 자동차회사: Factor w/ 2 levels "A자동차","B자동차": 1 1 1 1 1 1 1 1 1 1 ...
##  $ 타이어수명: num [1:60] 48187 47245 51020 50732 52416 ...

## # A tibble: 60 x 2
##    자동차회사 타이어수명
##    <fct>           <dbl>
##  1 A자동차         48187
##  2 A자동차         47245
##  3 A자동차         51020
##  4 A자동차         50732
##  5 A자동차         52416
##  6 A자동차         49278
##  7 A자동차         38214
##  8 A자동차         46742
##  9 A자동차         48706
## 10 A자동차         54280
## # ... with 50 more rows
…
추론을 이용한 방법

## Response: 타이어수명 (numeric)
## Explanatory: 자동차회사 (factor)
## # A tibble: 1 x 1
##     stat
##    <dbl>
## 1 -2675.

## Response: 타이어수명 (numeric)
## Explanatory: 자동차회사 (factor)
## Null Hypothesis: independence
## # A tibble: 1,000 x 2
##    replicate   stat
##        <int>  <dbl>
##  1         1 -1703.
##  2         2   397.
##  3         3  1773.
##  4         4   433 
##  5         5  -256.
##  6         6  2382.
##  7         7   788.
##  8         8  1110.
##  9         9  1494.
## 10        10 -1443.
## # ... with 990 more rows
…
t값

## Response: 타이어수명 (numeric)
## Explanatory: 자동차회사 (factor)
## # A tibble: 1 x 1
##    stat
##   <dbl>
## 1 -2.92

## Response: 타이어수명 (numeric)
## Explanatory: 자동차회사 (factor)
## Null Hypothesis: independence
## # A tibble: 1,000 x 2
##    replicate    stat
##        <int>   <dbl>
##  1         1 -0.918 
##  2         2  0.0372
##  3         3  1.64  
##  4         4 -0.501 
##  5         5 -1.18  
##  6         6 -0.0139
##  7         7  0.296 
##  8         8  1.23  
##  9         9  0.318 
## 10        10 -1.64  
## # ... with 990 more rows
…
추론을 이용한 가설검정

표본 평균(x)

## Response: 차이 (numeric)
## # A tibble: 1 x 1
##    stat
##   <dbl>
## 1 -2.55

## Response: 차이 (numeric)
## Null Hypothesis: point
## # A tibble: 1,000 x 2
##    replicate    stat
##        <int>   <dbl>
##  1         1 -0.0500
##  2         2 -0.95  
##  3         3  0.400 
##  4         4 -0.100 
##  5         5 -0.250 
##  6         6 -0.250 
##  7         7 -0.100 
##  8         8 -0.65  
##  9         9  0.65  
## 10        10 -0.95  
## # ... with 990 more rows
…
t분포

## Response: 차이 (numeric)
## Null Hypothesis: point
## # A tibble: 1 x 1
##    stat
##   <dbl>
## 1 -3.64

## Response: 차이 (numeric)
## Null Hypothesis: point
## # A tibble: 1,000 x 2
##    replicate    stat
##        <int>   <dbl>
##  1         1  0.650 
##  2         2  0.723 
##  3         3 -1.27  
##  4         4 -0.900 
##  5         5 -1.57  
##  6         6  1.53  
##  7         7 -0.205 
##  8         8  0.341 
##  9         9 -2.00  
## 10        10  0.0623
## # ... with 990 more rows
…
## Rows: 139 Columns: 3
## -- Column specification --------------------------------------------------------
## Delimiter: ","
## dbl (3): 번호, 매장명, 만족도
## 
## i Use `spec()` to retrieve the full column specification for this data.
## i Specify the column types or set `show_col_types = FALSE` to quiet this message.

## tibble [139 x 3] (S3: tbl_df/tbl/data.frame)
##  $ 번호  : num [1:139] 1 2 3 4 5 6 7 8 9 10 ...
##  $ 매장명: Factor w/ 4 levels "강남","강서",..: 1 2 3 4 1 2 3 4 1 2 ...
##  $ 만족도: num [1:139] 85 82 87 88 93 83 86 85 94 93 ...

## # A tibble: 139 x 3
##     번호 매장명 만족도
##    <dbl> <fct>   <dbl>
##  1     1 강남       85
##  2     2 강서       82
##  3     3 강동       87
##  4     4 강북       88
##  5     5 강남       93
##  6     6 강서       83
##  7     7 강동       86
##  8     8 강북       85
##  9     9 강남       94
## 10    10 강서       93
## # ... with 129 more rows
…
추론에 대한 가설검정 F값

## Response: 만족도 (numeric)
## Explanatory: 매장명 (factor)
## # A tibble: 1 x 1
##    stat
##   <dbl>
## 1  10.8

## Response: 만족도 (numeric)
## Explanatory: 매장명 (factor)
## Null Hypothesis: independence
## # A tibble: 1,000 x 2
##    replicate   stat
##        <int>  <dbl>
##  1         1 1.23  
##  2         2 0.272 
##  3         3 1.73  
##  4         4 0.327 
##  5         5 0.0845
##  6         6 3.11  
##  7         7 2.67  
##  8         8 0.248 
##  9         9 1.60  
## 10        10 1.01  
## # ... with 990 more rows
…
