데이터마이닝의 이론과 실제 중간고사 연습문제
…
str(edu_tb)

## tibble [286 x 6] (S3: tbl_df/tbl/data.frame)
##  $ 학부        : num [1:286] 1 1 1 1 1 1 1 1 2 2 ...
##  $ 학년        : Factor w/ 4 levels "1학년","2학년",..: 1 1 1 1 1 1 1 1 1 1 ...
##  $ 교양강의운영: num [1:286] 47.6 33.3 50 35.7 54.7 39.3 46.4 42.9 42.9 32.1 ...
##  $ 전공강의운영: num [1:286] 40.5 35.7 52.4 28.5 92.8 53.6 46.4 67.9 50 28.6 ...
##  $ 비교과운영  : num [1:286] 40 33.3 50 40 43.3 55 45 35 25 30 ...
##  $ 종합점수    : num [1:286] 46.7 33.6 50.4 36.1 56.2 48.9 46.9 53.2 37.4 31.5 ...

edu_tb

## # A tibble: 286 x 6
##     학부 학년  교양강의운영 전공강의운영 비교과운영 종합점수
##    <dbl> <fct>        <dbl>        <dbl>      <dbl>    <dbl>
##  1     1 1학년         47.6         40.5       40       46.7
##  2     1 1학년         33.3         35.7       33.3     33.6
##  3     1 1학년         50           52.4       50       50.4
##  4     1 1학년         35.7         28.5       40       36.1
##  5     1 1학년         54.7         92.8       43.3     56.2
##  6     1 1학년         39.3         53.6       55       48.9
##  7     1 1학년         46.4         46.4       45       46.9
##  8     1 1학년         42.9         67.9       35       53.2
##  9     2 1학년         42.9         50         25       37.4
## 10     2 1학년         32.1         28.6       30       31.5
## # ... with 276 more rows
…
Bootstrapping을 이용한 귀무가설 분포 생성

set.seed(123) 
null_dist_f <- edu_tb %>%
  specify(formula = 비교과운영 ~ 학년) %>% # 가설검정 공식을 specify 함수에 명세한다.
  hypothesize(null = "independence") %>% # 귀무가설을 hypothesize 함수에서 적시한다.독립성 검정(test of independence), 귀무가설 H0 : 두 변수 X와 Y는 서로 독립이다 (관련성이 없다), 대립가설 H1 : 두 변수 X와 Y는 서로 독립이 아니다 (관련성이 있다)
  generate(reps = 1000, type = "permute") %>% # 컴퓨터에서 모의실험 난수를 generate에서 생성시킨다.randomly reassigned => permute
  calculate(stat = "F") %>%  # 검정 통계량을 calculate 함수에 명시한다.
  print()

## Response: 비교과운영 (numeric)
## Explanatory: 학년 (factor)
## Null Hypothesis: independence
## # A tibble: 1,000 x 2
##    replicate   stat
##        <int>  <dbl>
##  1         1 0.759 
##  2         2 0.880 
##  3         3 1.51  
##  4         4 1.21  
##  5         5 0.559 
##  6         6 0.417 
##  7         7 0.389 
##  8         8 0.360 
##  9         9 0.0417
## 10        10 2.75  
## # ... with 990 more rows
…
str(edu_tb)

## tibble [100 x 3] (S3: tbl_df/tbl/data.frame)
##  $ 번호: num [1:100] 42 10 23 31 20 29 44 45 35 18 ...
##  $ 구분: Factor w/ 2 levels "재학생","교원": 1 1 1 1 1 1 1 1 1 1 ...
##  $ 종합: num [1:100] 0 5 70.8 71.6 71.7 71.7 73.3 73.3 78.3 79.1 ...

edu_tb

## # A tibble: 100 x 3
##     번호 구분    종합
##    <dbl> <fct>  <dbl>
##  1    42 재학생   0  
##  2    10 재학생   5  
##  3    23 재학생  70.8
##  4    31 재학생  71.6
##  5    20 재학생  71.7
##  6    29 재학생  71.7
##  7    44 재학생  73.3
##  8    45 재학생  73.3
##  9    35 재학생  78.3
## 10    18 재학생  79.1
## # ... with 90 more rows
…
Bootstrapping을 이용한 귀무가설 분포 생성

set.seed(123) 
null_dist_x <- edu_tb %>%
  specify(formula = 종합 ~ 구분) %>%
  hypothesize(null = "independence") %>% # 차이가 있는 가 확인 할때 independence
  generate(reps = 1000, type = "permute") %>%
  calculate(stat = "diff in means", 
            order= c("재학생", "교원")) %>%
  print()

## Response: 종합 (numeric)
## Explanatory: 구분 (factor)
## Null Hypothesis: independence
## # A tibble: 1,000 x 2
##    replicate   stat
##        <int>  <dbl>
##  1         1 -0.836
##  2         2  1.61 
##  3         3 -0.914
##  4         4  2.03 
##  5         5 -0.432
##  6         6 -2.34 
##  7         7 -2.25 
##  8         8 -3.36 
##  9         9  0.125
## 10        10  4.79 
## # ... with 990 more rows
…
Bootstrapping을 이용한 귀무가설 분포 생성

set.seed(123) 
null_dist_t <- edu_tb %>%
  specify(formula = 종합 ~ 구분) %>%
  hypothesize(null = "independence") %>%
  generate(reps = 1000, type = "permute") %>%
  calculate(stat = "t", 
            order= c("재학생", "교원")) %>%
  print()

## Response: 종합 (numeric)
## Explanatory: 구분 (factor)
## Null Hypothesis: independence
## # A tibble: 1,000 x 2
##    replicate    stat
##        <int>   <dbl>
##  1         1 -0.341 
##  2         2  0.657 
##  3         3 -0.373 
##  4         4  0.829 
##  5         5 -0.176 
##  6         6 -0.959 
##  7         7 -0.924 
##  8         8 -1.38  
##  9         9  0.0508
## 10        10  1.99  
## # ... with 990 more rows
…
## tibble [200 x 2] (S3: tbl_df/tbl/data.frame)
##  $ no   : num [1:200] 1 2 3 4 5 6 8 9 10 11 ...
##  $ satis: num [1:200] 33.8 39.3 41.8 59.3 41.8 31.3 18.7 43.6 43.1 50.4 ...

glimpse(sat_tb)

## Rows: 200
## Columns: 2
## $ no    <dbl> 1, 2, 3, 4, 5, 6, 8, 9, 10, 11, 13, 14, 16, 17, 18, 19, 20, 21, ~
## $ satis <dbl> 33.8, 39.3, 41.8, 59.3, 41.8, 31.3, 18.7, 43.6, 43.1, 50.4, 46.7~

sat_tb

## # A tibble: 200 x 2
##       no satis
##    <dbl> <dbl>
##  1     1  33.8
##  2     2  39.3
##  3     3  41.8
##  4     4  59.3
##  5     5  41.8
##  6     6  31.3
##  7     8  18.7
##  8     9  43.6
##  9    10  43.1
## 10    11  50.4
## # ... with 190 more rows
…
Bootstrapping을 이용한 귀무가설 분포 생성

set.seed(123) 
null_dist_x <- sat_tb %>%
  specify(response = satis) %>%
  hypothesize(null = "point",  # 평균의 비교 : point
              mu = 50) %>%
  generate(reps = 1000, 
           type = "bootstrap") %>%
  calculate(stat = "mean") %>%
  print()

## Response: satis (numeric)
## Null Hypothesis: point
## # A tibble: 1,000 x 2
##    replicate  stat
##        <int> <dbl>
##  1         1  49.4
##  2         2  50.3
##  3         3  50.0
##  4         4  49.5
##  5         5  49.3
##  6         6  50.7
##  7         7  50.9
##  8         8  51.1
##  9         9  48.6
## 10        10  51.6
## # ... with 990 more rows
…
Bootstrapping을 이용한 귀무가설 분포 생성

set.seed(123) 
null_dist_t <- sat_tb %>%
  specify(response = satis) %>%
  hypothesize(null = "point", 
              mu = 50) %>%
  generate(reps = 1000, 
           type = "bootstrap") %>%
  calculate(stat = "t") %>%
  print()

## Response: satis (numeric)
## Null Hypothesis: point
## # A tibble: 1,000 x 2
##    replicate    stat
##        <int>   <dbl>
##  1         1 -0.540 
##  2         2  0.299 
##  3         3  0.0284
##  4         4 -0.543 
##  5         5 -0.675 
##  6         6  0.653 
##  7         7  0.783 
##  8         8  1.08  
##  9         9 -1.42  
## 10        10  1.49  
## # ... with 990 more rows
…
str(brain_tb)

## tibble [144 x 8] (S3: tbl_df/tbl/data.frame)
##  $ ch1al: num [1:144] 0.03 0.05 0.05 0.01 0.04 0.03 0.02 0.04 0.03 0.03 ...
##  $ ch2al: num [1:144] 0.03 0.04 0.02 0.01 0.04 0.03 0.02 0.05 0.03 0.05 ...
##  $ ch3al: num [1:144] 0.02 0.07 0.06 0.02 0.05 0.03 0.02 0.05 0.02 0.08 ...
##  $ ch4al: num [1:144] 0.02 0.07 0.06 0.02 0.06 0.02 0.02 0.03 0.03 0.08 ...
##  $ ch1be: num [1:144] 0.18 0.09 0.13 0.08 0.18 0.17 0.17 0.18 0.08 0.1 ...
##  $ ch2be: num [1:144] 0.14 0.14 0.15 0.09 0.13 0.28 0.17 0.16 0.1 0.1 ...
##  $ ch3be: num [1:144] 0.14 0.12 0.14 0.07 0.14 0.17 0.19 0.18 0.07 0.13 ...
##  $ ch4be: num [1:144] 0.1 0.1 0.1 0.1 0.1 0.2 0.2 0.2 0.1 0.1 ...

brain_tb

## # A tibble: 144 x 8
##    ch1al ch2al ch3al ch4al ch1be ch2be ch3be ch4be
##    <dbl> <dbl> <dbl> <dbl> <dbl> <dbl> <dbl> <dbl>
##  1  0.03  0.03  0.02  0.02  0.18  0.14  0.14   0.1
##  2  0.05  0.04  0.07  0.07  0.09  0.14  0.12   0.1
##  3  0.05  0.02  0.06  0.06  0.13  0.15  0.14   0.1
##  4  0.01  0.01  0.02  0.02  0.08  0.09  0.07   0.1
##  5  0.04  0.04  0.05  0.06  0.18  0.13  0.14   0.1
##  6  0.03  0.03  0.03  0.02  0.17  0.28  0.17   0.2
##  7  0.02  0.02  0.02  0.02  0.17  0.17  0.19   0.2
##  8  0.04  0.05  0.05  0.03  0.18  0.16  0.18   0.2
##  9  0.03  0.03  0.02  0.03  0.08  0.1   0.07   0.1
## 10  0.03  0.05  0.08  0.08  0.1   0.1   0.13   0.1
## # ... with 134 more rows
…
차이 추가

brain_tb <- brain_tb %>%
  mutate(차이 = ch1al-ch1be) # mutate -> 새로운 칼럼 생성

brain_tb

## # A tibble: 144 x 9
##    ch1al ch2al ch3al ch4al ch1be ch2be ch3be ch4be  차이
##    <dbl> <dbl> <dbl> <dbl> <dbl> <dbl> <dbl> <dbl> <dbl>
##  1  0.03  0.03  0.02  0.02  0.18  0.14  0.14   0.1 -0.15
##  2  0.05  0.04  0.07  0.07  0.09  0.14  0.12   0.1 -0.04
##  3  0.05  0.02  0.06  0.06  0.13  0.15  0.14   0.1 -0.08
##  4  0.01  0.01  0.02  0.02  0.08  0.09  0.07   0.1 -0.07
##  5  0.04  0.04  0.05  0.06  0.18  0.13  0.14   0.1 -0.14
##  6  0.03  0.03  0.03  0.02  0.17  0.28  0.17   0.2 -0.14
##  7  0.02  0.02  0.02  0.02  0.17  0.17  0.19   0.2 -0.15
##  8  0.04  0.05  0.05  0.03  0.18  0.16  0.18   0.2 -0.14
##  9  0.03  0.03  0.02  0.03  0.08  0.1   0.07   0.1 -0.05
## 10  0.03  0.05  0.08  0.08  0.1   0.1   0.13   0.1 -0.07
## # ... with 134 more rows
…
Bootstrapping을 이용한 귀무가설 분포 생성

set.seed(123) 
null_dist_x <- brain_tb %>%
  specify(response = 차이) %>%
  hypothesize(null = "point", 
              mu = 0) %>% # 차이가 소수점 0.033...등 이므로 0으로 설정 
  generate(reps = 1000, 
           type = "bootstrap") %>%
  calculate(stat = "mean") %>%
  print()

## Response: 차이 (numeric)
## Null Hypothesis: point
## # A tibble: 1,000 x 2
##    replicate       stat
##        <int>      <dbl>
##  1         1 -0.00331  
##  2         2  0.00493  
##  3         3  0.00110  
##  4         4 -0.00272  
##  5         5  0.00118  
##  6         6  0.0000735
##  7         7  0.00287  
##  8         8  0.00434  
##  9         9  0.000368 
## 10        10 -0.00485  
## # ... with 990 more rows
…
Bootstrapping을 이용한 귀무가설 분포 생성

set.seed(123) 
null_dist_t <- brain_tb %>%
  specify(response = 차이) %>%
  hypothesize(null = "point", 
              mu = 0) %>% 
  generate(reps = 1000, 
           type = "bootstrap") %>%
  calculate(stat = "t") %>%
  print()

## Response: 차이 (numeric)
## Null Hypothesis: point
## # A tibble: 1,000 x 2
##    replicate    stat
##        <int>   <dbl>
##  1         1 -0.989 
##  2         2  1.33  
##  3         3  0.303 
##  4         4 -0.854 
##  5         5  0.369 
##  6         6  0.0218
##  7         7  0.840 
##  8         8  1.35  
##  9         9  0.105 
## 10        10 -1.51  
## # ... with 990 more rows
…
str(cal_tb)

## tibble [40 x 1] (S3: tbl_df/tbl/data.frame)
##  $ cscore: num [1:40] 509 481 501 502 498 503 497 489 504 502 ...

glimpse(cal_tb)

## Rows: 40
## Columns: 1
## $ cscore <dbl> 509, 481, 501, 502, 498, 503, 497, 489, 504, 502, 499, 510, 504~

cal_tb

## # A tibble: 40 x 1
##    cscore
##     <dbl>
##  1    509
##  2    481
##  3    501
##  4    502
##  5    498
##  6    503
##  7    497
##  8    489
##  9    504
## 10    502
## # ... with 30 more rows
…
Bootstrapping을 이용한 귀무가설 분포 생성

set.seed(123) 
null_dist_x <- cal_tb %>%
  specify(response = cscore) %>%
  hypothesize(null = "point", 
              mu = 500) %>%
  generate(reps = 1000, 
           type = "bootstrap") %>%
  calculate(stat = "mean") %>%
  print()

## Response: cscore (numeric)
## Null Hypothesis: point
## # A tibble: 1,000 x 2
##    replicate  stat
##        <int> <dbl>
##  1         1  501.
##  2         2  499.
##  3         3  500.
##  4         4  500.
##  5         5  500.
##  6         6  499.
##  7         7  499.
##  8         8  499.
##  9         9  500.
## 10        10  500.
## # ... with 990 more rows
…
Bootstrapping을 이용한 귀무가설 분포 생성

set.seed(123) 
null_dist_t <- cal_tb %>%
  specify(response = cscore) %>%
  hypothesize(null = "point", 
              mu = 500) %>%
  generate(reps = 1000, 
           type = "bootstrap") %>%
  calculate(stat = "t") %>%
  print()

## Response: cscore (numeric)
## Null Hypothesis: point
## # A tibble: 1,000 x 2
##    replicate    stat
##        <int>   <dbl>
##  1         1  1.85  
##  2         2 -1.65  
##  3         3  0.0455
##  4         4 -0.544 
##  5         5 -0.354 
##  6         6 -1.34  
##  7         7 -1.06  
##  8         8 -1.08  
##  9         9 -0.982 
## 10        10 -0.799 
## # ... with 990 more rows
…
