데이터마이닝의 이론과 실제 14주차
…
bank_tb

## # A tibble: 5,000 x 14
##       ID   Age Experience Income `ZIP Code` Family CCAvg Education Mortgage
##    <dbl> <dbl>      <dbl>  <dbl>      <dbl>  <dbl> <dbl>     <dbl>    <dbl>
##  1     1    25          1     49      91107      4   1.6         1        0
##  2     2    45         19     34      90089      3   1.5         1        0
##  3     3    39         15     11      94720      1   1           1        0
##  4     4    35          9    100      94112      1   2.7         2        0
##  5     5    35          8     45      91330      4   1           2        0
##  6     6    37         13     29      92121      4   0.4         2      155
##  7     7    53         27     72      91711      2   1.5         2        0
##  8     8    50         24     22      93943      1   0.3         3        0
##  9     9    35         10     81      90089      3   0.6         2      104
## 10    10    34          9    180      93023      1   8.9         3        0
## # ... with 4,990 more rows, and 5 more variables: `Personal Loan` <dbl>,
## #   `Securities Account` <dbl>, `CD Account` <dbl>, Online <dbl>,
## #   CreditCard <dbl>
…
bank_tb

## # A tibble: 5,000 x 14
##       ID   Age Experience Income `ZIP Code` Family CCAvg Education Mortgage
##    <dbl> <dbl>      <dbl>  <dbl>      <dbl>  <dbl> <dbl>     <dbl>    <dbl>
##  1     1    25          1     49      91107      4   1.6         1        0
##  2     2    45         19     34      90089      3   1.5         1        0
##  3     3    39         15     11      94720      1   1           1        0
##  4     4    35          9    100      94112      1   2.7         2        0
##  5     5    35          8     45      91330      4   1           2        0
##  6     6    37         13     29      92121      4   0.4         2      155
##  7     7    53         27     72      91711      2   1.5         2        0
##  8     8    50         24     22      93943      1   0.3         3        0
##  9     9    35         10     81      90089      3   0.6         2      104
## 10    10    34          9    180      93023      1   8.9         3        0
## # ... with 4,990 more rows, and 5 more variables: Personal_Loan <dbl>,
## #   Securities_Account <dbl>, CD_Account <dbl>, Online <dbl>, CreditCard <dbl>
…
predict(예측치, 실제값)

tree_train_pred <- 
  predict(tree_train_fit,
          train_data,
          type="prob") %>%
  bind_cols(predict(tree_train_fit,
                    train_data)) %>%
  bind_cols(train_data %>%
              select(Personal_Loan))    #Personal_Loan은 실제값  

tree_train_pred

## # A tibble: 3,750 x 4
##    .pred_Yes .pred_No .pred_class Personal_Loan
##        <dbl>    <dbl> <fct>       <fct>        
##  1     0        1     No          No           
##  2     0        1     No          No           
##  3     0.113    0.887 No          No           
##  4     0        1     No          No           
##  5     0        1     No          No           
##  6     0.113    0.887 No          No           
##  7     0        1     No          No           
##  8     1        0     Yes         Yes          
##  9     0        1     No          No           
## 10     0        1     No          No           
## # ... with 3,740 more rows
…
09. 테스트 데이터 검증

tree_test_fit <-
  tree_workflow %>%
  last_fit(bank_split)

tree_test_fit$.predictions

## [[1]]
## # A tibble: 1,250 x 6
##    .pred_Yes .pred_No  .row .pred_class Personal_Loan .config             
##        <dbl>    <dbl> <int> <fct>       <fct>         <chr>               
##  1         0        1     4 No          No            Preprocessor1_Model1
##  2         0        1     6 No          No            Preprocessor1_Model1
##  3         0        1     8 No          No            Preprocessor1_Model1
##  4         0        1     9 No          No            Preprocessor1_Model1
##  5         0        1    23 No          No            Preprocessor1_Model1
##  6         0        1    24 No          No            Preprocessor1_Model1
##  7         0        1    38 No          No            Preprocessor1_Model1
##  8         0        1    47 No          No            Preprocessor1_Model1
##  9         1        0    48 Yes         Yes           Preprocessor1_Model1
## 10         0        1    50 No          No            Preprocessor1_Model1
## # ... with 1,240 more rows

tree_test_pred <-
tree_test_fit %>% 
  collect_predictions

tree_test_pred

## # A tibble: 1,250 x 7
##    id               .pred_Yes .pred_No  .row .pred_class Personal_Loan .config  
##    <chr>                <dbl>    <dbl> <int> <fct>       <fct>         <chr>    
##  1 train/test split         0        1     4 No          No            Preproce~
##  2 train/test split         0        1     6 No          No            Preproce~
##  3 train/test split         0        1     8 No          No            Preproce~
##  4 train/test split         0        1     9 No          No            Preproce~
##  5 train/test split         0        1    23 No          No            Preproce~
##  6 train/test split         0        1    24 No          No            Preproce~
##  7 train/test split         0        1    38 No          No            Preproce~
##  8 train/test split         0        1    47 No          No            Preproce~
##  9 train/test split         1        0    48 Yes         Yes           Preproce~
## 10 train/test split         0        1    50 No          No            Preproce~
## # ... with 1,240 more rows
…
