데이터마이닝의 이론과 실제 10주차
…
str(corr_tb)

## spec_tbl_df [30 x 2] (S3: spec_tbl_df/tbl_df/tbl/data.frame)
##  $ 몸무게: num [1:30] 72 72 70 43 48 54 51 52 73 45 ...
##  $ 키    : num [1:30] 176 172 182 160 163 165 168 163 182 148 ...
##  - attr(*, "spec")=
##   .. cols(
##   ..   몸무게 = col_double(),
##   ..   키 = col_double()
##   .. )
##  - attr(*, "problems")=<externalptr>

corr_tb

## # A tibble: 30 x 2
##    몸무게    키
##     <dbl> <dbl>
##  1     72   176
##  2     72   172
##  3     70   182
##  4     43   160
##  5     48   163
##  6     54   165
##  7     51   168
##  8     52   163
##  9     73   182
## 10     45   148
## # ... with 20 more rows
…
str(slr_tb)

## spec_tbl_df [62 x 2] (S3: spec_tbl_df/tbl_df/tbl/data.frame)
##  $ col: num [1:62] 146 190 179 164 185 ...
##  $ fat: num [1:62] 162 225 194 161 181 ...
##  - attr(*, "spec")=
##   .. cols(
##   ..   col = col_double(),
##   ..   fat = col_double()
##   .. )
##  - attr(*, "problems")=<externalptr>

slr_tb

## # A tibble: 62 x 2
##      col   fat
##    <dbl> <dbl>
##  1  146   162.
##  2  190.  225.
##  3  179.  194.
##  4  164.  161.
##  5  185.  181.
##  6  154.  137.
##  7  179   165.
##  8  225.  228.
##  9  145   113.
## 10  154.  123 
## # ... with 52 more rows
…
mr_tb

## # A tibble: 175 x 7
##       id design  info  comm    op    fb  flow
##    <dbl>  <dbl> <dbl> <dbl> <dbl> <dbl> <dbl>
##  1     1   1.23 -1.46  1.67  0.76  1.22  2.06
##  2     2   0.7  -0.38 -0.79 -0.31  1.29 -0.34
##  3     3  -0.19  0.84 -1.12  0.06 -0.32  0.75
##  4     4   1.2  -1.21 -0.42  1.8  -0.27 -2.2 
##  5     5   0.14 -1.44 -1.48  0.2   0.68 -0.18
##  6     6  -0.83 -1.45 -0.36  1.55 -0.47 -0.34
##  7     7  -0.45  0.29  0.39  0.62  0.57  0.75
##  8     8  -1.1  -0.92 -3.02 -0.94 -0.21 -3.29
##  9     9   0.33 -1.47 -0.08  0     0.08 -0.34
## 10    10  -1.67 -1.24 -0.47 -1.99  1.46 -1.11
## # ... with 165 more rows
…
