데이터마이닝의 이론과 실제 기말고사 연습문제6
…
str(churn_tb)

## tibble [100 x 5] (S3: tbl_df/tbl/data.frame)
##  $ phy  : num [1:100] 43 54 60 57 60 42 48 46 57 59 ...
##  $ psy  : num [1:100] 18 27 30 17 30 27 21 18 30 24 ...
##  $ cmmt : num [1:100] 28 28 26 23 29 26 23 28 23 26 ...
##  $ exp  : num [1:100] 1 1 0 0 1 1 0 0 0 0 ...
##  $ churn: num [1:100] 0 0 0 0 0 1 0 0 0 0 ...

churn_tb

## # A tibble: 100 x 5
##      phy   psy  cmmt   exp churn
##    <dbl> <dbl> <dbl> <dbl> <dbl>
##  1    43    18    28     1     0
##  2    54    27    28     1     0
##  3    60    30    26     0     0
##  4    57    17    23     0     0
##  5    60    30    29     1     0
##  6    42    27    26     1     1
##  7    48    21    23     0     0
##  8    46    18    28     0     0
##  9    57    30    23     0     0
## 10    59    24    26     0     0
## # ... with 90 more rows
…
08.훈련모델 검정

예측결과표 생성

tree_train_pred <- 
  predict(tree_train_fit, 
          train_data, 
          type = "prob") %>%
  bind_cols(predict(tree_train_fit, 
                    train_data)) %>% 
  bind_cols(train_data %>% 
              select(churn)) %>%
  print()

## # A tibble: 75 x 4
##    .pred_이직 .pred_근무 .pred_class churn
##         <dbl>      <dbl> <fct>       <fct>
##  1      0.145      0.855 근무        근무 
##  2      0.145      0.855 근무        근무 
##  3      0.145      0.855 근무        근무 
##  4      0.145      0.855 근무        근무 
##  5      0.145      0.855 근무        근무 
##  6      0.145      0.855 근무        근무 
##  7      0.145      0.855 근무        근무 
##  8      0.145      0.855 근무        근무 
##  9      0.145      0.855 근무        근무 
## 10      0.145      0.855 근무        근무 
## # ... with 65 more rows
…
예측결과 자동생성: collect_predictions()

tree_test_pred <- 
  tree_test_fit %>%
  collect_predictions()

tree_test_pred

## # A tibble: 25 x 7
##    id               .pred_이직 .pred_근무  .row .pred_class churn .config       
##    <chr>                 <dbl>      <dbl> <int> <fct>       <fct> <chr>         
##  1 train/test split      0.145     0.855      3 근무        근무  Preprocessor1~
##  2 train/test split      0.145     0.855      4 근무        근무  Preprocessor1~
##  3 train/test split      0.145     0.855      6 근무        이직  Preprocessor1~
##  4 train/test split      0.145     0.855     12 근무        근무  Preprocessor1~
##  5 train/test split      0.145     0.855     22 근무        근무  Preprocessor1~
##  6 train/test split      0.145     0.855     26 근무        근무  Preprocessor1~
##  7 train/test split      0.145     0.855     28 근무        근무  Preprocessor1~
##  8 train/test split      0.145     0.855     31 근무        근무  Preprocessor1~
##  9 train/test split      0.923     0.0769    40 이직        이직  Preprocessor1~
## 10 train/test split      0.145     0.855     43 근무        근무  Preprocessor1~
## # ... with 15 more rows
…
